{
  "type": "FeatureCollection",
  "features": [
    {
      "type": "Feature",
      "id": "3d8ef5d2-96d0-471d-ac9c-24d7d50e6a52",
      "feature_type": "amenity",
      "properties": {
        "category": "elevator",
        "accessibility": null,
        "name": null,
        "alt_name": null,
        "hours": null,
        "phone": null,
        "website": null,
        "unit_ids": ["2a490db2-9ad8-49c6-842b-8ec61490bac5"],
        "address_id": null,
        "correlation_id": "ac3e29cb-3415-4e22-ab42-7c776e2d76e3"
      },
      "geometry": {
        "type": "Point",
        "coordinates": [-122.323043, 47.598168]
      }
    },
    {
      "type": "Feature",
      "id": "48dca15b-e0a9-4146-8963-a9be8cf3c028",
      "feature_type": "amenity",
      "properties": {
        "category": "stairs",
        "accessibility": null,
        "name": null,
        "alt_name": null,
        "hours": null,
        "phone": null,
        "website": null,
        "unit_ids": ["090ae5a0-368e-4c5e-9acb-e8dc2b3f718e"],
        "address_id": null,
        "correlation_id": "9b22104f-63ae-42de-a756-eeb283486fa1"
      },
      "geometry": {
        "type": "Point",
        "coordinates": [-122.322946, 47.598206]
      }
    },
    {
      "type": "Feature",
      "id": "347ff764-0340-43c7-b0bf-9b52621364b6",
      "feature_type": "amenity",
      "properties": {
        "category": "restroom.female",
        "accessibility": null,
        "name": null,
        "alt_name": null,
        "hours": null,
        "phone": null,
        "website": null,
        "unit_ids": ["09a7490c-f9ba-4f7e-81aa-a80cb8d17cc1"],
        "address_id": null,
        "correlation_id": null
      },
      "geometry": {
        "type": "Point",
        "coordinates": [-122.322982, 47.598148]
      }
    },
    {
      "type": "Feature",
      "id": "ac3e245f-5ecc-4fab-ab50-8f57891923ed",
      "feature_type": "amenity",
      "properties": {
        "category": "restroom.male",
        "accessibility": null,
        "name": null,
        "alt_name": null,
        "hours": null,
        "phone": null,
        "website": null,
        "unit_ids": ["5030b739-7dcf-4cd7-b750-397b7758a1ab"],
        "address_id": null,
        "correlation_id": null
      },
      "geometry": {
        "type": "Point",
        "coordinates": [-122.322982, 47.598115]
      }
    },
    {
      "type": "Feature",
      "id": "ea8c904e-2c8d-459a-b3db-3d3413da8da4",
      "feature_type": "amenity",
      "properties": {
        "category": "elevator",
        "accessibility": null,
        "name": null,
        "alt_name": null,
        "hours": null,
        "phone": null,
        "website": null,
        "unit_ids": ["fe3c8989-50dd-462f-8084-630232a3b6a7"],
        "address_id": null,
        "correlation_id": "ac3e29cb-3415-4e22-ab42-7c776e2d76e3"
      },
      "geometry": {
        "type": "Point",
        "coordinates": [-122.323043, 47.598168]
      }
    },
    {
      "type": "Feature",
      "id": "d5eab421-277e-4275-ab4d-b2fa92474b07",
      "feature_type": "amenity",
      "properties": {
        "category": "stairs",
        "accessibility": null,
        "name": null,
        "alt_name": null,
        "hours": null,
        "phone": null,
        "website": null,
        "unit_ids": ["0ef2e2d8-3f07-4039-9e14-aaee3869ec23"],
        "address_id": null,
        "correlation_id": "9b22104f-63ae-42de-a756-eeb283486fa1"
      },
      "geometry": {
        "type": "Point",
        "coordinates": [-122.322946, 47.598206]
      }
    },
    {
      "type": "Feature",
      "id": "a1a73e45-f801-43ef-9ac4-0d6c1818093c",
      "feature_type": "amenity",
      "properties": {
        "category": "stairs",
        "accessibility": null,
        "name": null,
        "alt_name": null,
        "hours": null,
        "phone": null,
        "website": null,
        "unit_ids": ["f88a4c87-9dc6-4b18-a9ee-c3bbf6eca90d"],
        "address_id": null,
        "correlation_id": "816da6b8-23a6-40aa-aa52-0b672aeaf6f8"
      },
      "geometry": {
        "type": "Point",
        "coordinates": [-122.322907, 47.598135]
      }
    },
    {
      "type": "Feature",
      "id": "13d14768-874a-418f-a33e-e798edf07861",
      "feature_type": "amenity",
      "properties": {
        "category": "elevator",
        "accessibility": null,
        "name": null,
        "alt_name": null,
        "hours": null,
        "phone": null,
        "website": null,
        "unit_ids": ["8b5aaa06-244a-48da-a1aa-feca86cf8201"],
        "address_id": null,
        "correlation_id": "ac3e29cb-3415-4e22-ab42-7c776e2d76e3"
      },
      "geometry": {
        "type": "Point",
        "coordinates": [-122.323043, 47.598168]
      }
    },
    {
      "type": "Feature",
      "id": "3a59fd35-3eca-473a-b718-2ae0d80971e1",
      "feature_type": "amenity",
      "properties": {
        "category": "stairs",
        "accessibility": null,
        "name": null,
        "alt_name": null,
        "hours": null,
        "phone": null,
        "website": null,
        "unit_ids": ["49decc1b-b127-4034-aa25-9aa9e1add372"],
        "address_id": null,
        "correlation_id": "816da6b8-23a6-40aa-aa52-0b672aeaf6f8"
      },
      "geometry": {
        "type": "Point",
        "coordinates": [-122.322907, 47.598135]
      }
    },
    {
      "type": "Feature",
      "id": "c9d02e52-a976-4655-834d-4c690683541b",
      "feature_type": "amenity",
      "properties": {
        "category": "stairs",
        "accessibility": null,
        "name": null,
        "alt_name": null,
        "hours": null,
        "phone": null,
        "website": null,
        "unit_ids": ["a6cbb98e-25ae-426e-b63a-42d6b1c3d435"],
        "address_id": null,
        "correlation_id": "05dde0d7-41c6-44a8-9d07-b4d8d60916e2"
      },
      "geometry": {
        "type": "Point",
        "coordinates": [-122.322952, 47.598135]
      }
    },
    {
      "type": "Feature",
      "id": "32c8818b-68a5-47b3-ac0b-60b351a4ec72",
      "feature_type": "amenity",
      "properties": {
        "category": "restroom.female",
        "accessibility": null,
        "name": null,
        "alt_name": null,
        "hours": null,
        "phone": null,
        "website": null,
        "unit_ids": ["f9a08497-e7b1-4517-8c4b-ad95b2a7dd25"],
        "address_id": null,
        "correlation_id": null
      },
      "geometry": {
        "type": "Point",
        "coordinates": [-122.322983, 47.598135]
      }
    },
    {
      "type": "Feature",
      "id": "5c438542-f9fa-4301-8f04-635b8d261851",
      "feature_type": "amenity",
      "properties": {
        "category": "elevator",
        "accessibility": null,
        "name": null,
        "alt_name": null,
        "hours": null,
        "phone": null,
        "website": null,
        "unit_ids": ["170df348-4510-44dc-9111-1b9b0a53bbe5"],
        "address_id": null,
        "correlation_id": "ac3e29cb-3415-4e22-ab42-7c776e2d76e3"
      },
      "geometry": {
        "type": "Point",
        "coordinates": [-122.323043, 47.598168]
      }
    },
    {
      "type": "Feature",
      "id": "4762ab07-d43a-4961-a4cf-8d416e057387",
      "feature_type": "amenity",
      "properties": {
        "category": "stairs",
        "accessibility": null,
        "name": null,
        "alt_name": null,
        "hours": null,
        "phone": null,
        "website": null,
        "unit_ids": ["76934bf0-b5b6-4b15-98f7-513612bd7276"],
        "address_id": null,
        "correlation_id": "05dde0d7-41c6-44a8-9d07-b4d8d60916e2"
      },
      "geometry": {
        "type": "Point",
        "coordinates": [-122.322952, 47.598135]
      }
    },
    {
      "type": "Feature",
      "id": "e456b606-b364-424d-87de-f4c57679a859",
      "feature_type": "amenity",
      "properties": {
        "category": "restroom.male",
        "accessibility": null,
        "name": null,
        "alt_name": null,
        "hours": null,
        "phone": null,
        "website": null,
        "unit_ids": ["61b63e45-869f-4605-a2cf-8222dc3fbba3"],
        "address_id": null,
        "correlation_id": null
      },
      "geometry": {
        "type": "Point",
        "coordinates": [-122.322983, 47.598135]
      }
    }
  ]
}
