{
    "type": "FeatureCollection",
    "features": [
        {
            "type": "Feature",
            "id": "2208e865-fd9c-4037-831d-ac632d6ceeb9",
            "feature_type": "venue",
            "properties": {
                "address_id": "849907e9-ed9b-49b4-84f9-53e06d811990",
                "alt_name": null,
                "category": "museum",
                "display_point": null,
                "hours": null,
                "name": { "en": "Wing Luke Asian Museum" },
                "phone": null,
                "restriction": null,
                "website": null
            },
            "geometry": {
                "type": "Polygon",
                "coordinates": [
                    [
                        [-122.323063, 47.598260],
                        [-122.323063, 47.597935],
                        [-122.322586, 47.597935],
                        [-122.322586, 47.598260],
                        [-122.323063, 47.598260]
                    ]
                ]
            }
        }
    ]
}
